"","id","Gender","Married","Dependents","Education","Self_Employed","ApplicantIncome","CoapplicantIncome","LoanAmount","Loan_Amount_Term","Credit_History","Property_Area","Loan_Status","dependcat","aincomecat"
"1",1,"Male","No","0","Graduate","No",5849,4232,212,360,1,"Urban","Y","No dependents","4k-8k$"
"2",2,"Male","Yes","1","Graduate","No",4583,1508,128,360,1,"Rural","N","One dependent","4k-8k$"
"3",3,"Male","Yes","0","Graduate","Yes",3000,2488,66,360,1,"Urban","Y","No dependents","0-4k$"
"4",4,"Male","Yes","0","Not Graduate","No",2583,2358,120,360,1,"Urban","Y","No dependents","0-4k$"
"5",5,"Male","No","0","Graduate","No",6000,3496,141,360,1,"Urban","Y","No dependents","4k-8k$"
"6",6,"Male","Yes","2","Graduate","Yes",5417,4196,267,360,1,"Urban","Y","Two dependents","4k-8k$"
"7",7,"Male","Yes","0","Not Graduate","No",2333,1516,95,360,1,"Urban","Y","No dependents","0-4k$"
"8",8,"Male","Yes","3+","Graduate","No",3036,2504,158,360,0,"Semiurban","N","> 3 dependents","0-4k$"
"9",9,"Male","Yes","2","Graduate","No",4006,1526,168,360,1,"Urban","Y","Two dependents","4k-8k$"
"10",10,"Male","Yes","1","Graduate","No",12841,10968,349,360,1,"Semiurban","N","One dependent","12k-16k$"
"11",11,"Male","Yes","2","Graduate","No",3200,700,70,360,1,"Urban","Y","Two dependents","0-4k$"
"12",12,"Male","Yes","2","Graduate","No",2500,1840,109,360,1,"Urban","Y","Two dependents","0-4k$"
"13",13,"Male","Yes","2","Graduate","No",3073,8106,200,360,1,"Urban","Y","Two dependents","0-4k$"
"14",14,"Male","No","0","Graduate","No",1853,2840,114,360,1,"Rural","N","No dependents","0-4k$"
"15",15,"Male","Yes","2","Graduate","No",1299,1086,17,120,1,"Urban","Y","Two dependents","0-4k$"
"16",16,"Male","No","0","Graduate","No",4950,2878,125,360,1,"Urban","Y","No dependents","4k-8k$"
"17",17,"Male","No","1","Not Graduate","No",3596,2339,100,240,1,"Urban","Y","One dependent","0-4k$"
"18",18,"Female","No","0","Graduate","No",3510,3858,76,360,0,"Urban","N","No dependents","0-4k$"
"19",19,"Male","Yes","0","Not Graduate","No",4887,2051,133,360,1,"Rural","N","No dependents","4k-8k$"
"20",20,"Male","Yes","0","Graduate","No",2600,3500,115,344,1,"Urban","Y","No dependents","0-4k$"
"21",21,"Male","Yes","0","Not Graduate","No",7660,2728,104,360,0,"Urban","N","No dependents","4k-8k$"
"22",22,"Male","Yes","1","Graduate","No",5955,5625,315,360,1,"Urban","Y","One dependent","4k-8k$"
"23",23,"Male","Yes","0","Not Graduate","No",2600,1911,116,360,0,"Semiurban","N","No dependents","0-4k$"
"24",24,"Male","Yes","2","Not Graduate","No",3365,1917,112,360,0,"Rural","N","Two dependents","0-4k$"
"25",25,"Male","Yes","1","Graduate","No",3717,2925,151,360,1,"Semiurban","N","One dependent","0-4k$"
"26",26,"Male","Yes","0","Graduate","Yes",9560,3152,191,360,1,"Semiurban","Y","No dependents","8k-12k$"
"27",27,"Male","Yes","0","Graduate","No",2799,2253,122,360,1,"Semiurban","Y","No dependents","0-4k$"
"28",28,"Male","Yes","2","Not Graduate","No",4226,1040,110,360,1,"Urban","Y","Two dependents","4k-8k$"
"29",29,"Male","No","0","Not Graduate","No",1442,9022,35,360,1,"Urban","N","No dependents","0-4k$"
"30",30,"Female","No","2","Graduate","No",3750,2083,120,360,1,"Semiurban","Y","Two dependents","0-4k$"
"31",31,"Male","Yes","1","Graduate","No",4166,3369,201,360,0,"Urban","N","One dependent","4k-8k$"
"32",32,"Male","No","0","Graduate","No",3167,5567,74,360,1,"Urban","N","No dependents","0-4k$"
"33",33,"Male","No","1","Graduate","Yes",4692,2492,106,360,1,"Rural","N","One dependent","4k-8k$"
"34",34,"Male","Yes","0","Graduate","No",3500,1667,114,360,1,"Semiurban","Y","No dependents","0-4k$"
"35",35,"Male","No","3+","Graduate","No",12500,3000,320,360,1,"Rural","N","> 3 dependents","12k-16k$"
"36",36,"Male","Yes","0","Graduate","No",2275,2067,107,360,1,"Urban","Y","No dependents","0-4k$"
"37",37,"Male","Yes","0","Graduate","No",1828,1330,100,382,0,"Urban","N","No dependents","0-4k$"
"38",38,"Female","Yes","0","Graduate","No",3667,1459,144,360,1,"Semiurban","Y","No dependents","0-4k$"
"39",39,"Male","No","0","Graduate","No",4166,7210,184,360,1,"Urban","Y","No dependents","4k-8k$"
"40",40,"Male","No","0","Not Graduate","No",3748,1668,110,360,1,"Semiurban","Y","No dependents","0-4k$"
"41",41,"Male","No","0","Graduate","No",3600,5766,80,360,1,"Urban","N","No dependents","0-4k$"
"42",42,"Male","No","0","Graduate","No",1800,1213,47,360,1,"Urban","Y","No dependents","0-4k$"
"43",43,"Male","Yes","0","Graduate","No",2400,1963,75,360,1,"Urban","Y","No dependents","0-4k$"
"44",44,"Male","Yes","0","Graduate","No",3941,2336,134,360,1,"Semiurban","Y","No dependents","0-4k$"
"45",45,"Male","Yes","0","Not Graduate","Yes",4695,2032,96,341,1,"Urban","Y","No dependents","4k-8k$"
"46",46,"Female","No","0","Graduate","No",3410,2314,88,342,1,"Urban","Y","No dependents","0-4k$"
"47",47,"Male","Yes","1","Graduate","No",5649,1892,44,360,1,"Urban","Y","One dependent","4k-8k$"
"48",48,"Male","Yes","0","Graduate","No",5821,2890,144,360,1,"Urban","Y","No dependents","4k-8k$"
"49",49,"Female","Yes","0","Graduate","No",2645,3440,120,360,0,"Urban","N","No dependents","0-4k$"
"50",50,"Female","No","0","Graduate","No",4000,2275,144,360,1,"Semiurban","Y","No dependents","0-4k$"
"51",51,"Female","Yes","0","Not Graduate","No",1928,1644,100,360,1,"Semiurban","Y","No dependents","0-4k$"
"52",52,"Female","No","0","Graduate","No",3086,2451,120,360,1,"Semiurban","Y","No dependents","0-4k$"
"53",53,"Female","No","0","Graduate","No",4230,2419,112,360,1,"Semiurban","N","No dependents","4k-8k$"
"54",54,"Male","Yes","2","Graduate","No",4616,1911,134,360,1,"Urban","N","Two dependents","4k-8k$"
"55",55,"Female","Yes","1","Graduate","Yes",11500,5858,286,360,0,"Urban","N","One dependent","8k-12k$"
"56",56,"Male","Yes","2","Graduate","No",2708,1167,97,360,1,"Semiurban","Y","Two dependents","0-4k$"
"57",57,"Male","Yes","0","Graduate","No",2132,1591,96,360,1,"Semiurban","Y","No dependents","0-4k$"
"58",58,"Male","Yes","0","Graduate","No",3366,2200,135,360,1,"Rural","N","No dependents","0-4k$"
"59",59,"Male","Yes","1","Graduate","No",8080,2250,180,360,1,"Urban","Y","One dependent","8k-12k$"
"60",60,"Male","Yes","2","Not Graduate","No",3357,2859,144,360,1,"Urban","Y","Two dependents","0-4k$"
"61",61,"Male","Yes","0","Graduate","No",2500,3796,120,360,1,"Urban","Y","No dependents","0-4k$"
"62",62,"Male","Yes","3+","Graduate","No",3029,1674,99,360,1,"Urban","Y","> 3 dependents","0-4k$"
"63",63,"Male","Yes","0","Not Graduate","Yes",2609,3449,165,180,0,"Rural","N","No dependents","0-4k$"
"64",64,"Male","Yes","1","Graduate","No",4945,2294,134,360,0,"Rural","N","One dependent","4k-8k$"
"65",65,"Female","No","0","Graduate","No",4166,2870,116,360,0,"Semiurban","N","No dependents","4k-8k$"
"66",66,"Male","Yes","0","Graduate","No",5726,4595,258,360,1,"Semiurban","N","No dependents","4k-8k$"
"67",67,"Male","No","0","Not Graduate","No",3200,2254,126,180,0,"Urban","N","No dependents","0-4k$"
"68",68,"Male","Yes","1","Graduate","No",10750,3579,312,360,1,"Urban","Y","One dependent","8k-12k$"
"69",69,"Male","Yes","3+","Not Graduate","Yes",7100,3078,125,60,1,"Urban","Y","> 3 dependents","4k-8k$"
"70",70,"Female","No","0","Graduate","No",4300,3136,136,360,0,"Semiurban","N","No dependents","4k-8k$"
"71",71,"Male","Yes","0","Graduate","No",3208,3066,172,360,1,"Urban","Y","No dependents","0-4k$"
"72",72,"Male","Yes","2","Not Graduate","Yes",1875,1875,97,360,1,"Semiurban","Y","Two dependents","0-4k$"
"73",73,"Male","No","0","Graduate","No",3500,3677,81,300,1,"Semiurban","Y","No dependents","0-4k$"
"74",74,"Male","Yes","3+","Not Graduate","No",4755,2228,95,347,0,"Semiurban","N","> 3 dependents","4k-8k$"
"75",75,"Male","Yes","3+","Graduate","Yes",5266,1774,187,360,1,"Semiurban","Y","> 3 dependents","4k-8k$"
"76",76,"Male","No","0","Graduate","No",3750,3056,113,480,1,"Urban","N","No dependents","0-4k$"
"77",77,"Male","No","0","Graduate","No",3750,4750,176,360,1,"Urban","N","No dependents","0-4k$"
"78",78,"Male","Yes","1","Graduate","Yes",1000,3022,110,360,1,"Urban","N","One dependent","0-4k$"
"79",79,"Male","Yes","3+","Graduate","No",3167,4000,180,300,0,"Semiurban","N","> 3 dependents","0-4k$"
"80",80,"Male","Yes","3+","Not Graduate","Yes",3333,2166,130,360,1,"Semiurban","Y","> 3 dependents","0-4k$"
"81",81,"Female","No","0","Graduate","No",3846,2483,111,360,1,"Semiurban","Y","No dependents","0-4k$"
"82",82,"Male","Yes","1","Graduate","Yes",2395,2390,122,360,1,"Semiurban","Y","One dependent","0-4k$"
"83",83,"Female","Yes","2","Graduate","No",1378,1881,167,360,1,"Urban","N","Two dependents","0-4k$"
"84",84,"Male","Yes","0","Graduate","No",6000,2250,265,360,1,"Semiurban","N","No dependents","4k-8k$"
"85",85,"Male","Yes","1","Graduate","No",3988,1817,50,240,1,"Urban","Y","One dependent","0-4k$"
"86",86,"Male","No","0","Graduate","No",2366,2531,136,360,1,"Semiurban","Y","No dependents","0-4k$"
"87",87,"Male","Yes","2","Not Graduate","No",3333,2000,99,360,1,"Semiurban","Y","Two dependents","0-4k$"
"88",88,"Male","Yes","0","Graduate","No",2500,2118,104,360,1,"Semiurban","Y","No dependents","0-4k$"
"89",89,"Male","No","0","Graduate","No",8566,3961,210,360,1,"Urban","Y","No dependents","8k-12k$"
"90",90,"Male","Yes","0","Graduate","No",5695,4167,175,360,1,"Semiurban","Y","No dependents","4k-8k$"
"91",91,"Male","Yes","0","Graduate","No",2958,2900,131,360,1,"Semiurban","Y","No dependents","0-4k$"
"92",92,"Male","Yes","2","Graduate","No",6250,5654,188,180,1,"Semiurban","Y","Two dependents","4k-8k$"
"93",93,"Male","Yes","2","Not Graduate","No",3273,1820,81,360,1,"Urban","Y","Two dependents","0-4k$"
"94",94,"Male","No","0","Graduate","No",4133,2740,122,360,1,"Semiurban","Y","No dependents","4k-8k$"
"95",95,"Male","No","0","Not Graduate","No",3620,2891,25,120,1,"Semiurban","Y","No dependents","0-4k$"
"96",96,"Male","No","0","Graduate","Yes",6782,4042,168,360,0,"Urban","N","No dependents","4k-8k$"
"97",97,"Female","Yes","0","Graduate","No",2484,2302,137,360,1,"Semiurban","Y","No dependents","0-4k$"
"98",98,"Male","Yes","0","Graduate","No",1977,997,50,360,1,"Semiurban","Y","No dependents","0-4k$"
"99",99,"Male","Yes","0","Not Graduate","No",4188,2526,115,180,1,"Semiurban","Y","No dependents","4k-8k$"
"100",100,"Male","Yes","0","Graduate","No",1759,3541,131,360,1,"Semiurban","Y","No dependents","0-4k$"
"101",101,"Male","Yes","2","Not Graduate","No",4288,3263,133,180,1,"Urban","Y","Two dependents","4k-8k$"
"102",102,"Male","No","0","Graduate","No",4843,3806,151,360,1,"Semiurban","Y","No dependents","4k-8k$"
"103",103,"Male","Yes","1","Graduate","No",13650,2562,176,360,1,"Urban","Y","One dependent","12k-16k$"
"104",104,"Male","Yes","0","Graduate","No",4652,3583,173,360,1,"Semiurban","Y","No dependents","4k-8k$"
"105",105,"Male","Yes","2","Graduate","No",3816,754,160,360,1,"Urban","Y","Two dependents","0-4k$"
"106",106,"Male","Yes","1","Graduate","No",3052,1030,100,360,1,"Urban","Y","One dependent","0-4k$"
"107",107,"Male","Yes","2","Graduate","No",11417,1126,225,360,1,"Urban","Y","Two dependents","8k-12k$"
"108",108,"Male","No","0","Not Graduate","No",7333,2514,120,360,1,"Rural","N","No dependents","4k-8k$"
"109",109,"Male","Yes","2","Graduate","No",3800,3600,216,360,0,"Urban","N","Two dependents","0-4k$"
"110",110,"Male","Yes","3+","Not Graduate","No",2071,754,94,480,1,"Semiurban","Y","> 3 dependents","0-4k$"
"111",111,"Male","No","0","Graduate","No",5316,3106,136,360,1,"Urban","Y","No dependents","4k-8k$"
"112",112,"Female","Yes","0","Graduate","No",2929,2333,139,360,1,"Semiurban","Y","No dependents","0-4k$"
"113",113,"Male","Yes","0","Not Graduate","No",3572,4114,152,290,0,"Rural","N","No dependents","0-4k$"
"114",114,"Female","No","1","Graduate","Yes",7451,2611,150,360,1,"Semiurban","Y","One dependent","4k-8k$"
"115",115,"Male","No","0","Graduate","No",5050,3016,118,360,1,"Semiurban","Y","No dependents","4k-8k$"
"116",116,"Male","Yes","1","Graduate","No",14583,3334,185,180,1,"Rural","Y","One dependent","12k-16k$"
"117",117,"Female","Yes","0","Graduate","No",3167,2283,154,360,1,"Semiurban","Y","No dependents","0-4k$"
"118",118,"Male","Yes","1","Graduate","No",2214,1398,85,360,1,"Urban","Y","One dependent","0-4k$"
"119",119,"Male","Yes","0","Graduate","No",5568,2142,175,360,1,"Rural","N","No dependents","4k-8k$"
"120",120,"Female","No","0","Graduate","No",10408,3514,259,360,1,"Urban","Y","No dependents","8k-12k$"
"121",121,"Male","Yes","0","Graduate","No",5667,2667,180,360,1,"Rural","Y","No dependents","4k-8k$"
"122",122,"Female","No","0","Graduate","No",4166,3076,44,360,1,"Semiurban","Y","No dependents","4k-8k$"
"123",123,"Female","No","0","Graduate","No",2137,8980,137,360,0,"Semiurban","Y","No dependents","0-4k$"
"124",124,"Male","Yes","2","Graduate","No",2957,1491,81,360,1,"Semiurban","Y","Two dependents","0-4k$"
"125",125,"Male","Yes","0","Not Graduate","No",4300,2014,194,360,1,"Rural","Y","No dependents","4k-8k$"
"126",126,"Female","No","0","Graduate","No",3692,2423,93,360,1,"Rural","Y","No dependents","0-4k$"
"127",127,"Male","Yes","3+","Graduate","No",23803,6640,370,360,1,"Rural","Y","> 3 dependents",">20k$"
"128",128,"Male","No","0","Graduate","No",3865,1640,121,360,1,"Rural","Y","No dependents","0-4k$"
"129",129,"Male","Yes","1","Graduate","Yes",10513,3850,160,180,0,"Urban","N","One dependent","8k-12k$"
"130",130,"Male","Yes","0","Graduate","No",6080,2569,182,360,1,"Rural","N","No dependents","4k-8k$"
"131",131,"Male","No","0","Graduate","Yes",20166,7725,650,480,1,"Urban","Y","No dependents",">20k$"
"132",132,"Male","No","0","Graduate","No",2014,1929,74,360,1,"Urban","Y","No dependents","0-4k$"
"133",133,"Male","No","0","Graduate","No",2718,3948,70,360,1,"Semiurban","Y","No dependents","0-4k$"
"134",134,"Male","Yes","0","Graduate","Yes",3459,3259,25,120,1,"Semiurban","Y","No dependents","0-4k$"
"135",135,"Male","No","0","Graduate","No",4895,5316,102,360,1,"Semiurban","Y","No dependents","4k-8k$"
"136",136,"Male","Yes","3+","Graduate","No",4000,7750,290,360,1,"Semiurban","N","> 3 dependents","0-4k$"
"137",137,"Female","Yes","0","Graduate","No",4583,2542,84,360,1,"Rural","N","No dependents","4k-8k$"
"138",138,"Male","Yes","2","Graduate","Yes",3316,3500,88,360,1,"Urban","Y","Two dependents","0-4k$"
"139",139,"Male","No","0","Graduate","No",14999,4477,242,360,0,"Semiurban","N","No dependents","12k-16k$"
"140",140,"Male","Yes","2","Not Graduate","No",4200,1430,129,360,1,"Rural","N","Two dependents","4k-8k$"
"141",141,"Male","Yes","2","Graduate","No",5042,2083,185,360,1,"Rural","N","Two dependents","4k-8k$"
"142",142,"Male","No","0","Graduate","No",5417,4093,168,360,1,"Urban","Y","No dependents","4k-8k$"
"143",143,"Male","No","0","Graduate","Yes",6950,4200,175,180,1,"Semiurban","Y","No dependents","4k-8k$"
"144",144,"Male","Yes","0","Graduate","No",2698,2034,122,360,1,"Semiurban","Y","No dependents","0-4k$"
"145",145,"Male","Yes","2","Graduate","No",11757,3329,187,180,1,"Urban","Y","Two dependents","8k-12k$"
"146",146,"Female","Yes","0","Graduate","No",2330,4486,100,360,1,"Semiurban","Y","No dependents","0-4k$"
"147",147,"Female","Yes","2","Graduate","No",14866,2235,70,360,1,"Urban","Y","Two dependents","12k-16k$"
"148",148,"Male","Yes","1","Graduate","No",1538,1425,30,360,1,"Urban","Y","One dependent","0-4k$"
"149",149,"Female","No","0","Graduate","No",10000,1666,225,360,1,"Rural","N","No dependents","8k-12k$"
"150",150,"Male","Yes","0","Graduate","No",4860,830,125,360,1,"Semiurban","Y","No dependents","4k-8k$"
"151",151,"Male","No","0","Graduate","No",6277,3448,118,360,0,"Rural","N","No dependents","4k-8k$"
"152",152,"Male","Yes","0","Graduate","Yes",2577,3750,152,360,1,"Rural","Y","No dependents","0-4k$"
"153",153,"Male","No","0","Graduate","No",9166,4556,244,360,1,"Urban","N","No dependents","8k-12k$"
"154",154,"Male","Yes","2","Not Graduate","No",2281,1803,113,360,1,"Rural","N","Two dependents","0-4k$"
"155",155,"Male","No","0","Graduate","No",3254,2921,50,360,1,"Urban","Y","No dependents","0-4k$"
"156",156,"Male","Yes","3+","Graduate","No",39999,9687,600,180,0,"Semiurban","Y","> 3 dependents",">20k$"
"157",157,"Male","Yes","1","Graduate","No",6000,2971,160,360,1,"Rural","Y","One dependent","4k-8k$"
"158",158,"Male","Yes","1","Graduate","No",9538,2443,187,360,1,"Urban","Y","One dependent","8k-12k$"
"159",159,"Male","No","0","Graduate","No",2980,2083,120,360,1,"Rural","Y","No dependents","0-4k$"
"160",160,"Male","Yes","0","Graduate","No",4583,5625,255,360,1,"Semiurban","Y","No dependents","4k-8k$"
"161",161,"Male","Yes","0","Not Graduate","No",1863,1041,98,360,1,"Semiurban","Y","No dependents","0-4k$"
"162",162,"Male","Yes","0","Graduate","No",7933,3714,275,360,1,"Urban","N","No dependents","4k-8k$"
"163",163,"Male","Yes","1","Graduate","No",3089,1280,121,360,0,"Semiurban","N","One dependent","0-4k$"
"164",164,"Male","Yes","2","Graduate","No",4167,1447,158,360,1,"Rural","Y","Two dependents","4k-8k$"
"165",165,"Male","Yes","0","Graduate","No",9323,2980,75,180,1,"Urban","Y","No dependents","8k-12k$"
"166",166,"Male","Yes","0","Graduate","No",3707,3166,182,314,1,"Rural","Y","No dependents","0-4k$"
"167",167,"Female","Yes","0","Graduate","No",4583,2216,112,360,1,"Rural","N","No dependents","4k-8k$"
"168",168,"Male","Yes","0","Graduate","No",2439,3333,129,360,1,"Rural","Y","No dependents","0-4k$"
"169",169,"Male","No","0","Graduate","No",2237,4756,63,480,0,"Semiurban","N","No dependents","0-4k$"
"170",170,"Male","Yes","2","Graduate","No",8000,3053,200,360,1,"Semiurban","Y","Two dependents","4k-8k$"
"171",171,"Male","Yes","0","Not Graduate","No",1820,1769,95,360,1,"Rural","Y","No dependents","0-4k$"
"172",172,"Male","Yes","3+","Graduate","No",51763,7139,700,300,1,"Urban","Y","> 3 dependents",">20k$"
"173",173,"Male","Yes","3+","Not Graduate","No",3522,2816,81,180,1,"Rural","N","> 3 dependents","0-4k$"
"174",174,"Male","Yes","0","Graduate","No",5708,5625,187,360,1,"Semiurban","Y","No dependents","4k-8k$"
"175",175,"Male","Yes","0","Not Graduate","Yes",4344,736,87,360,1,"Semiurban","N","No dependents","4k-8k$"
"176",176,"Male","Yes","0","Graduate","No",3497,1964,116,360,1,"Rural","Y","No dependents","0-4k$"
"177",177,"Male","Yes","2","Graduate","No",2045,1619,101,360,1,"Rural","Y","Two dependents","0-4k$"
"178",178,"Male","Yes","3+","Graduate","No",5516,11300,495,360,0,"Semiurban","N","> 3 dependents","4k-8k$"
"179",179,"Male","Yes","1","Graduate","No",3750,1745,116,360,1,"Semiurban","Y","One dependent","0-4k$"
"180",180,"Male","No","0","Not Graduate","No",2333,1451,102,480,0,"Urban","N","No dependents","0-4k$"
"181",181,"Male","Yes","1","Graduate","No",6400,7250,180,360,0,"Urban","N","One dependent","4k-8k$"
"182",182,"Male","No","0","Graduate","No",1916,5063,67,360,1,"Rural","N","No dependents","0-4k$"
"183",183,"Male","Yes","0","Graduate","No",4600,2988,73,180,1,"Semiurban","Y","No dependents","4k-8k$"
"184",184,"Male","Yes","1","Graduate","No",33846,4732,260,360,1,"Semiurban","N","One dependent",">20k$"
"185",185,"Female","Yes","0","Graduate","No",3625,1992,108,360,1,"Semiurban","Y","No dependents","0-4k$"
"186",186,"Male","Yes","0","Graduate","Yes",39147,4750,120,360,1,"Semiurban","Y","No dependents",">20k$"
"187",187,"Male","Yes","1","Graduate","Yes",2178,3107,66,300,0,"Rural","N","One dependent","0-4k$"
"188",188,"Male","Yes","0","Graduate","No",2383,2138,58,360,1,"Rural","Y","No dependents","0-4k$"
"189",189,"Male","Yes","0","Graduate","Yes",674,5296,168,360,1,"Rural","Y","No dependents","0-4k$"
"190",190,"Male","Yes","0","Graduate","No",9328,4273,188,180,1,"Rural","Y","No dependents","8k-12k$"
"191",191,"Male","No","0","Not Graduate","No",4885,2355,48,360,1,"Rural","Y","No dependents","4k-8k$"
"192",192,"Male","No","0","Graduate","No",12000,3218,164,360,1,"Semiurban","N","No dependents","8k-12k$"
"193",193,"Male","Yes","0","Not Graduate","No",6033,2454,160,360,1,"Urban","N","No dependents","4k-8k$"
"194",194,"Male","No","0","Graduate","No",3858,3676,76,360,1,"Semiurban","Y","No dependents","0-4k$"
"195",195,"Male","No","0","Graduate","No",4191,2507,120,360,1,"Rural","Y","No dependents","4k-8k$"
"196",196,"Male","Yes","1","Graduate","No",3125,2583,170,360,1,"Semiurban","N","One dependent","0-4k$"
"197",197,"Male","No","0","Graduate","No",8333,3750,187,360,1,"Rural","Y","No dependents","8k-12k$"
"198",198,"Female","No","0","Not Graduate","No",1907,2365,120,343,1,"Urban","Y","No dependents","0-4k$"
"199",199,"Female","Yes","0","Graduate","No",3416,2816,113,360,1,"Semiurban","Y","No dependents","0-4k$"
"200",200,"Male","No","0","Graduate","Yes",11000,6034,83,360,1,"Urban","N","No dependents","8k-12k$"
"201",201,"Male","Yes","1","Not Graduate","No",2600,2500,90,360,1,"Semiurban","Y","One dependent","0-4k$"
"202",202,"Male","No","2","Graduate","No",4923,3620,166,360,0,"Semiurban","Y","Two dependents","4k-8k$"
"203",203,"Male","Yes","3+","Not Graduate","No",3992,2723,102,180,1,"Urban","N","> 3 dependents","0-4k$"
"204",204,"Male","Yes","1","Not Graduate","No",3500,1083,135,360,1,"Urban","Y","One dependent","0-4k$"
"205",205,"Male","Yes","2","Not Graduate","No",3917,1532,124,360,1,"Semiurban","Y","Two dependents","0-4k$"
"206",206,"Female","No","0","Not Graduate","No",4408,2115,120,360,1,"Semiurban","Y","No dependents","4k-8k$"
"207",207,"Female","No","0","Graduate","No",3244,2240,80,360,1,"Urban","Y","No dependents","0-4k$"
"208",208,"Male","No","0","Not Graduate","No",3975,2531,55,360,1,"Rural","Y","No dependents","0-4k$"
"209",209,"Male","No","0","Graduate","No",2479,4020,59,360,1,"Urban","Y","No dependents","0-4k$"
"210",210,"Male","No","0","Graduate","No",3418,2465,127,360,1,"Semiurban","N","No dependents","0-4k$"
"211",211,"Female","No","0","Graduate","No",10000,2664,214,360,1,"Semiurban","N","No dependents","8k-12k$"
"212",212,"Male","Yes","3+","Graduate","No",3430,1250,128,360,0,"Semiurban","N","> 3 dependents","0-4k$"
"213",213,"Male","Yes","1","Graduate","Yes",7787,3413,240,360,1,"Urban","Y","One dependent","4k-8k$"
"214",214,"Male","Yes","3+","Not Graduate","Yes",5703,2130,130,360,1,"Rural","Y","> 3 dependents","4k-8k$"
"215",215,"Male","Yes","0","Graduate","No",3173,3021,137,360,1,"Urban","Y","No dependents","0-4k$"
"216",216,"Male","Yes","3+","Not Graduate","No",3850,983,100,360,1,"Semiurban","Y","> 3 dependents","0-4k$"
"217",217,"Male","Yes","0","Graduate","No",150,1800,135,360,1,"Rural","N","No dependents","0-4k$"
"218",218,"Male","Yes","0","Graduate","No",3727,1775,131,360,1,"Semiurban","Y","No dependents","0-4k$"
"219",219,"Male","Yes","2","Graduate","No",5000,2215,72,360,0,"Semiurban","N","Two dependents","4k-8k$"
"220",220,"Female","Yes","2","Graduate","No",4283,2383,127,360,1,"Semiurban","Y","Two dependents","4k-8k$"
"221",221,"Male","Yes","0","Graduate","No",2221,3061,60,360,0,"Urban","N","No dependents","0-4k$"
"222",222,"Male","Yes","2","Graduate","No",4009,1717,116,360,1,"Semiurban","Y","Two dependents","4k-8k$"
"223",223,"Male","No","0","Graduate","No",2971,2791,144,360,1,"Semiurban","Y","No dependents","0-4k$"
"224",224,"Male","Yes","0","Graduate","No",7578,1010,175,358,1,"Semiurban","Y","No dependents","4k-8k$"
"225",225,"Male","Yes","0","Graduate","No",6250,2824,128,360,1,"Semiurban","Y","No dependents","4k-8k$"
"226",226,"Male","Yes","0","Graduate","No",3250,2407,170,360,1,"Rural","N","No dependents","0-4k$"
"227",227,"Male","Yes","0","Not Graduate","Yes",4735,2429,138,360,1,"Urban","N","No dependents","4k-8k$"
"228",228,"Male","Yes","2","Graduate","No",6250,1695,210,360,1,"Semiurban","Y","Two dependents","4k-8k$"
"229",229,"Male","Yes","0","Graduate","No",4758,2392,158,480,1,"Semiurban","Y","No dependents","4k-8k$"
"230",230,"Male","No","0","Graduate","Yes",6400,3662,200,360,1,"Rural","Y","No dependents","4k-8k$"
"231",231,"Male","Yes","1","Graduate","No",2491,2054,104,360,1,"Semiurban","Y","One dependent","0-4k$"
"232",232,"Male","Yes","0","Graduate","No",3716,2688,42,180,1,"Rural","Y","No dependents","0-4k$"
"233",233,"Male","No","0","Not Graduate","No",3189,2598,120,351,1,"Rural","Y","No dependents","0-4k$"
"234",234,"Female","No","0","Graduate","No",8333,3853,280,360,1,"Semiurban","Y","No dependents","8k-12k$"
"235",235,"Male","Yes","1","Graduate","No",3155,1779,140,360,1,"Semiurban","Y","One dependent","0-4k$"
"236",236,"Male","Yes","1","Graduate","No",5500,1260,170,360,1,"Rural","Y","One dependent","4k-8k$"
"237",237,"Male","Yes","0","Graduate","No",5746,3854,255,360,1,"Urban","N","No dependents","4k-8k$"
"238",238,"Female","No","0","Graduate","Yes",3463,2484,122,360,1,"Urban","Y","No dependents","0-4k$"
"239",239,"Female","No","1","Graduate","No",3812,1996,112,360,1,"Rural","Y","One dependent","0-4k$"
"240",240,"Male","Yes","1","Graduate","No",3315,1693,96,360,1,"Semiurban","Y","One dependent","0-4k$"
"241",241,"Male","Yes","2","Graduate","No",5819,5000,120,360,1,"Rural","Y","Two dependents","4k-8k$"
"242",242,"Male","Yes","1","Not Graduate","No",2510,1983,140,180,1,"Urban","N","One dependent","0-4k$"
"243",243,"Male","No","0","Graduate","No",2965,5701,155,60,1,"Urban","Y","No dependents","0-4k$"
"244",244,"Male","Yes","2","Graduate","Yes",6250,1300,108,360,1,"Rural","Y","Two dependents","4k-8k$"
"245",245,"Male","Yes","0","Not Graduate","No",3406,4417,123,360,1,"Semiurban","Y","No dependents","0-4k$"
"246",246,"Male","No","0","Graduate","Yes",6050,4333,120,180,1,"Urban","N","No dependents","4k-8k$"
"247",247,"Male","Yes","2","Graduate","No",9703,2459,112,360,1,"Urban","Y","Two dependents","8k-12k$"
"248",248,"Male","Yes","1","Not Graduate","No",6608,2437,137,180,1,"Urban","Y","One dependent","4k-8k$"
"249",249,"Male","Yes","1","Graduate","No",2882,1843,123,480,1,"Semiurban","Y","One dependent","0-4k$"
"250",250,"Male","Yes","0","Graduate","No",1809,1868,90,360,1,"Urban","Y","No dependents","0-4k$"
"251",251,"Male","Yes","0","Not Graduate","No",1668,3890,201,360,0,"Semiurban","N","No dependents","0-4k$"
"252",252,"Female","No","2","Graduate","No",3427,2507,138,360,1,"Urban","N","Two dependents","0-4k$"
"253",253,"Male","No","0","Not Graduate","Yes",2583,2167,104,360,1,"Rural","Y","No dependents","0-4k$"
"254",254,"Male","Yes","1","Not Graduate","No",2661,7101,279,180,1,"Semiurban","Y","One dependent","0-4k$"
"255",255,"Male","No","0","Graduate","Yes",16250,4158,192,360,0,"Urban","N","No dependents","16k-20k$"
"256",256,"Female","No","3+","Graduate","No",3083,4364,255,360,1,"Rural","Y","> 3 dependents","0-4k$"
"257",257,"Male","No","0","Not Graduate","No",6045,2745,115,360,0,"Rural","N","No dependents","4k-8k$"
"258",258,"Male","Yes","3+","Graduate","No",5250,2822,94,360,1,"Urban","N","> 3 dependents","4k-8k$"
"259",259,"Male","Yes","0","Graduate","No",14683,2100,304,360,1,"Rural","N","No dependents","12k-16k$"
"260",260,"Male","Yes","3+","Not Graduate","No",4931,2287,128,360,1,"Semiurban","N","> 3 dependents","4k-8k$"
"261",261,"Male","Yes","1","Graduate","No",6083,4250,330,360,1,"Urban","Y","One dependent","4k-8k$"
"262",262,"Male","No","0","Graduate","No",2060,2209,134,360,1,"Semiurban","Y","No dependents","0-4k$"
"263",263,"Female","No","1","Graduate","No",3481,3640,155,36,1,"Semiurban","N","One dependent","0-4k$"
"264",264,"Female","No","0","Graduate","No",7200,2873,120,360,1,"Rural","Y","No dependents","4k-8k$"
"265",265,"Male","No","0","Graduate","Yes",5166,2895,128,360,1,"Semiurban","Y","No dependents","4k-8k$"
"266",266,"Male","No","0","Graduate","No",4095,3447,151,360,1,"Rural","Y","No dependents","4k-8k$"
"267",267,"Male","Yes","2","Graduate","No",4708,1387,150,360,1,"Semiurban","Y","Two dependents","4k-8k$"
"268",268,"Male","Yes","3+","Graduate","No",4333,1811,160,360,0,"Urban","Y","> 3 dependents","4k-8k$"
"269",269,"Female","No","0","Graduate","No",3418,2354,135,360,1,"Rural","N","No dependents","0-4k$"
"270",270,"Female","No","1","Graduate","No",2876,1560,90,360,1,"Urban","Y","One dependent","0-4k$"
"271",271,"Female","No","0","Graduate","No",3237,2244,30,360,1,"Urban","Y","No dependents","0-4k$"
"272",272,"Male","Yes","0","Graduate","No",11146,2978,136,360,1,"Urban","Y","No dependents","8k-12k$"
"273",273,"Male","No","0","Graduate","No",2833,1857,126,360,1,"Rural","Y","No dependents","0-4k$"
"274",274,"Male","Yes","0","Graduate","No",2620,2223,150,360,1,"Semiurban","Y","No dependents","0-4k$"
"275",275,"Male","Yes","2","Graduate","No",3900,1499,90,360,1,"Semiurban","Y","Two dependents","0-4k$"
"276",276,"Male","Yes","1","Graduate","No",2750,1842,115,360,1,"Semiurban","Y","One dependent","0-4k$"
"277",277,"Male","Yes","0","Graduate","No",3993,3274,207,360,1,"Semiurban","Y","No dependents","0-4k$"
"278",278,"Male","Yes","0","Graduate","No",3103,1300,80,360,1,"Urban","Y","No dependents","0-4k$"
"279",279,"Male","Yes","0","Graduate","No",14583,6281,436,360,1,"Semiurban","Y","No dependents","12k-16k$"
"280",280,"Female","Yes","0","Not Graduate","No",4100,2101,124,360,1,"Rural","Y","No dependents","4k-8k$"
"281",281,"Male","No","1","Not Graduate","Yes",4053,2426,158,360,0,"Urban","N","One dependent","4k-8k$"
"282",282,"Male","Yes","0","Graduate","No",3927,800,112,360,1,"Semiurban","Y","No dependents","0-4k$"
"283",283,"Male","Yes","2","Graduate","No",2301,986,78,180,1,"Urban","Y","Two dependents","0-4k$"
"284",284,"Female","No","0","Graduate","No",1811,1666,54,360,1,"Urban","Y","No dependents","0-4k$"
"285",285,"Male","Yes","0","Graduate","No",20667,5819,442,360,1,"Rural","N","No dependents",">20k$"
"286",286,"Male","No","0","Graduate","No",3158,3053,89,360,1,"Rural","Y","No dependents","0-4k$"
"287",287,"Female","No","0","Graduate","Yes",2600,1717,99,300,1,"Semiurban","N","No dependents","0-4k$"
"288",288,"Male","Yes","0","Graduate","No",3704,2000,120,360,1,"Rural","Y","No dependents","0-4k$"
"289",289,"Female","No","0","Graduate","No",4124,2535,115,360,1,"Semiurban","Y","No dependents","4k-8k$"
"290",290,"Male","No","0","Graduate","No",9508,3738,187,360,1,"Rural","Y","No dependents","8k-12k$"
"291",291,"Male","Yes","0","Graduate","No",3075,2416,139,360,1,"Rural","Y","No dependents","0-4k$"
"292",292,"Male","Yes","2","Graduate","No",4400,1917,127,360,0,"Semiurban","N","Two dependents","4k-8k$"
"293",293,"Male","Yes","2","Graduate","No",3153,1560,134,360,1,"Urban","Y","Two dependents","0-4k$"
"294",294,"Female","No","0","Graduate","No",5417,3401,143,480,0,"Urban","N","No dependents","4k-8k$"
"295",295,"Male","Yes","0","Graduate","No",2383,3334,172,360,1,"Semiurban","Y","No dependents","0-4k$"
"296",296,"Male","Yes","3+","Graduate","No",4416,1250,110,360,1,"Urban","Y","> 3 dependents","4k-8k$"
"297",297,"Male","Yes","1","Graduate","No",6875,2725,200,360,1,"Semiurban","Y","One dependent","4k-8k$"
"298",298,"Female","Yes","1","Graduate","No",4666,1910,135,360,1,"Urban","Y","One dependent","4k-8k$"
"299",299,"Female","No","0","Graduate","No",5000,2541,151,480,1,"Rural","N","No dependents","4k-8k$"
"300",300,"Male","Yes","1","Graduate","No",2014,2925,113,360,1,"Urban","N","One dependent","0-4k$"
"301",301,"Male","Yes","0","Not Graduate","No",1800,2934,93,360,0,"Urban","N","No dependents","0-4k$"
"302",302,"Male","Yes","2","Not Graduate","No",2875,1750,105,360,1,"Semiurban","Y","Two dependents","0-4k$"
"303",303,"Female","No","0","Graduate","No",5000,2375,132,360,1,"Rural","Y","No dependents","4k-8k$"
"304",304,"Male","Yes","1","Graduate","No",1625,1803,96,360,1,"Urban","Y","One dependent","0-4k$"
"305",305,"Male","No","0","Graduate","No",4000,2500,140,360,1,"Rural","Y","No dependents","0-4k$"
"306",306,"Male","No","0","Not Graduate","No",2000,4787,79,360,1,"Urban","N","No dependents","0-4k$"
"307",307,"Female","No","0","Graduate","No",3762,1666,135,360,1,"Rural","Y","No dependents","0-4k$"
"308",308,"Female","No","0","Graduate","No",2400,1863,104,360,0,"Urban","N","No dependents","0-4k$"
"309",309,"Male","No","0","Graduate","No",20233,6868,480,360,1,"Rural","N","No dependents",">20k$"
"310",310,"Male","Yes","2","Not Graduate","No",7667,2711,185,360,1,"Rural","Y","Two dependents","4k-8k$"
"311",311,"Female","No","0","Graduate","No",2917,3072,84,360,1,"Semiurban","Y","No dependents","0-4k$"
"312",312,"Male","No","0","Not Graduate","No",2927,2405,111,360,1,"Semiurban","Y","No dependents","0-4k$"
"313",313,"Female","No","0","Graduate","No",2507,3553,56,360,1,"Rural","Y","No dependents","0-4k$"
"314",314,"Male","Yes","2","Graduate","Yes",5746,3095,144,84,1,"Rural","Y","Two dependents","4k-8k$"
"315",315,"Male","Yes","0","Graduate","No",2473,1843,159,360,1,"Rural","N","No dependents","0-4k$"
"316",316,"Male","Yes","1","Not Graduate","No",3399,1640,111,180,1,"Urban","Y","One dependent","0-4k$"
"317",317,"Male","Yes","2","Graduate","No",3717,1723,120,360,1,"Semiurban","Y","Two dependents","0-4k$"
"318",318,"Male","Yes","0","Graduate","No",2058,2134,88,360,1,"Urban","Y","No dependents","0-4k$"
"319",319,"Female","No","1","Graduate","No",3541,2110,112,360,1,"Semiurban","Y","One dependent","0-4k$"
"320",320,"Male","Yes","1","Graduate","Yes",10000,2637,155,360,1,"Rural","N","One dependent","8k-12k$"
"321",321,"Male","Yes","0","Graduate","No",2400,2167,115,360,1,"Semiurban","Y","No dependents","0-4k$"
"322",322,"Male","Yes","3+","Graduate","No",4342,189,124,360,1,"Semiurban","Y","> 3 dependents","4k-8k$"
"323",323,"Male","Yes","2","Not Graduate","No",3601,1590,122,360,1,"Rural","Y","Two dependents","0-4k$"
"324",324,"Female","No","0","Graduate","No",3166,2985,132,360,1,"Rural","Y","No dependents","0-4k$"
"325",325,"Male","Yes","3+","Graduate","No",15000,3958,300,360,1,"Rural","Y","> 3 dependents","12k-16k$"
"326",326,"Male","Yes","1","Graduate","Yes",8666,4983,376,360,0,"Rural","N","One dependent","8k-12k$"
"327",327,"Male","No","0","Graduate","No",4917,3463,130,360,0,"Rural","Y","No dependents","4k-8k$"
"328",328,"Male","Yes","0","Graduate","Yes",5818,2160,184,360,1,"Semiurban","Y","No dependents","4k-8k$"
"329",329,"Female","Yes","0","Graduate","No",4333,2451,110,360,1,"Urban","N","No dependents","4k-8k$"
"330",330,"Female","No","0","Graduate","No",2500,3387,67,360,1,"Urban","Y","No dependents","0-4k$"
"331",331,"Male","No","1","Graduate","No",4384,1793,117,360,1,"Urban","Y","One dependent","4k-8k$"
"332",332,"Male","No","0","Graduate","No",2935,4516,98,360,1,"Semiurban","Y","No dependents","0-4k$"
"333",333,"Male","No","0","Graduate","No",2833,2743,71,360,1,"Urban","Y","No dependents","0-4k$"
"334",334,"Male","Yes","0","Graduate","No",63337,7383,490,180,1,"Urban","Y","No dependents",">20k$"
"335",335,"Male","Yes","1","Graduate","Yes",9833,1833,182,180,1,"Urban","Y","One dependent","8k-12k$"
"336",336,"Male","Yes","0","Graduate","Yes",5503,4490,70,280,1,"Semiurban","Y","No dependents","4k-8k$"
"337",337,"Male","Yes","1","Graduate","No",5250,688,160,360,1,"Rural","Y","One dependent","4k-8k$"
"338",338,"Male","Yes","2","Graduate","Yes",2500,4600,176,360,1,"Rural","Y","Two dependents","0-4k$"
"339",339,"Female","No","3+","Not Graduate","No",1830,6883,194,360,0,"Urban","N","> 3 dependents","0-4k$"
"340",340,"Female","No","0","Graduate","No",4160,3119,71,360,1,"Semiurban","Y","No dependents","4k-8k$"
"341",341,"Male","Yes","3+","Not Graduate","No",2647,1587,173,360,1,"Rural","N","> 3 dependents","0-4k$"
"342",342,"Female","No","0","Graduate","No",2378,3778,46,360,1,"Rural","N","No dependents","0-4k$"
"343",343,"Male","Yes","1","Not Graduate","No",4554,1229,158,360,1,"Urban","Y","One dependent","4k-8k$"
"344",344,"Male","Yes","3+","Not Graduate","No",3173,1523,74,360,1,"Semiurban","Y","> 3 dependents","0-4k$"
"345",345,"Male","Yes","2","Graduate","No",2583,2330,125,360,1,"Rural","Y","Two dependents","0-4k$"
"346",346,"Male","Yes","0","Graduate","No",2499,2458,160,360,1,"Semiurban","Y","No dependents","0-4k$"
"347",347,"Male","Yes","1","Not Graduate","No",3523,3230,152,360,0,"Rural","N","One dependent","0-4k$"
"348",348,"Male","Yes","2","Not Graduate","No",3083,2168,126,360,1,"Urban","Y","Two dependents","0-4k$"
"349",349,"Male","Yes","0","Graduate","No",6333,4583,259,360,1,"Semiurban","Y","No dependents","4k-8k$"
"350",350,"Male","Yes","0","Graduate","No",2625,6250,187,360,1,"Rural","Y","No dependents","0-4k$"
"351",351,"Male","Yes","0","Graduate","No",9083,2914,228,360,1,"Semiurban","Y","No dependents","8k-12k$"
"352",352,"Male","No","0","Graduate","No",8750,4167,308,360,1,"Rural","N","No dependents","8k-12k$"
"353",353,"Male","Yes","3+","Graduate","No",2666,2083,95,360,1,"Rural","Y","> 3 dependents","0-4k$"
"354",354,"Female","Yes","0","Graduate","Yes",5500,2878,105,360,0,"Rural","N","No dependents","4k-8k$"
"355",355,"Female","Yes","0","Graduate","No",2423,505,130,360,1,"Semiurban","Y","No dependents","0-4k$"
"356",356,"Female","No","0","Graduate","No",3813,3110,116,180,1,"Urban","Y","No dependents","0-4k$"
"357",357,"Male","Yes","2","Graduate","No",8333,3167,165,360,1,"Rural","Y","Two dependents","8k-12k$"
"358",358,"Male","Yes","1","Graduate","No",3875,2602,67,360,1,"Urban","N","One dependent","0-4k$"
"359",359,"Male","Yes","0","Not Graduate","No",3000,1666,100,480,0,"Urban","N","No dependents","0-4k$"
"360",360,"Male","Yes","3+","Graduate","No",5167,3167,200,360,1,"Semiurban","Y","> 3 dependents","4k-8k$"
"361",361,"Female","No","1","Graduate","No",4723,3694,81,360,1,"Semiurban","N","One dependent","4k-8k$"
"362",362,"Male","Yes","2","Graduate","No",5000,3667,236,360,1,"Semiurban","Y","Two dependents","4k-8k$"
"363",363,"Male","Yes","0","Graduate","No",4750,2333,130,360,1,"Urban","Y","No dependents","4k-8k$"
"364",364,"Male","Yes","0","Graduate","No",3013,3033,95,300,1,"Urban","Y","No dependents","0-4k$"
"365",365,"Male","No","0","Graduate","Yes",6822,3157,141,360,1,"Rural","Y","No dependents","4k-8k$"
"366",366,"Male","No","0","Not Graduate","No",6216,2418,133,360,1,"Rural","N","No dependents","4k-8k$"
"367",367,"Male","No","0","Graduate","No",2500,7052,96,480,1,"Semiurban","N","No dependents","0-4k$"
"368",368,"Male","No","0","Graduate","No",5124,2937,124,361,0,"Rural","N","No dependents","4k-8k$"
"369",369,"Male","Yes","1","Graduate","No",6325,2585,175,360,1,"Semiurban","Y","One dependent","4k-8k$"
"370",370,"Male","Yes","0","Graduate","No",19730,5266,570,360,1,"Rural","N","No dependents","16k-20k$"
"371",371,"Female","No","0","Graduate","Yes",15759,3418,55,360,1,"Semiurban","Y","No dependents","12k-16k$"
"372",372,"Male","Yes","2","Graduate","No",5185,1960,155,360,1,"Semiurban","Y","Two dependents","4k-8k$"
"373",373,"Male","Yes","2","Graduate","Yes",9323,7873,380,300,1,"Rural","Y","Two dependents","8k-12k$"
"374",374,"Male","No","1","Graduate","No",3062,1987,111,180,0,"Urban","N","One dependent","0-4k$"
"375",375,"Female","No","0","Graduate","No",2764,1459,110,360,1,"Urban","Y","No dependents","0-4k$"
"376",376,"Male","Yes","0","Graduate","No",4817,923,120,180,1,"Urban","Y","No dependents","4k-8k$"
"377",377,"Male","Yes","3+","Graduate","No",8750,4996,130,360,1,"Rural","Y","> 3 dependents","8k-12k$"
"378",378,"Male","Yes","0","Graduate","No",4310,2192,130,360,1,"Semiurban","Y","No dependents","4k-8k$"
"379",379,"Male","No","0","Graduate","No",3069,5183,71,480,1,"Urban","N","No dependents","0-4k$"
"380",380,"Male","Yes","2","Graduate","No",5391,1960,130,360,1,"Urban","Y","Two dependents","4k-8k$"
"381",381,"Male","Yes","0","Graduate","No",3333,2500,128,360,1,"Semiurban","Y","No dependents","0-4k$"
"382",382,"Male","No","0","Graduate","No",5941,4232,296,360,1,"Semiurban","Y","No dependents","4k-8k$"
"383",383,"Female","No","0","Graduate","No",6000,3265,156,360,1,"Urban","Y","No dependents","4k-8k$"
"384",384,"Male","No","0","Graduate","Yes",7167,3442,128,360,1,"Urban","Y","No dependents","4k-8k$"
"385",385,"Male","Yes","2","Graduate","No",4566,1923,100,360,1,"Urban","N","Two dependents","4k-8k$"
"386",386,"Male","No","1","Graduate","No",3667,2318,113,180,1,"Urban","Y","One dependent","0-4k$"
"387",387,"Male","No","0","Not Graduate","No",2346,1600,132,360,1,"Semiurban","Y","No dependents","0-4k$"
"388",388,"Male","Yes","0","Not Graduate","No",3010,3136,135,360,0,"Urban","N","No dependents","0-4k$"
"389",389,"Male","Yes","0","Graduate","No",2333,2417,136,360,1,"Urban","Y","No dependents","0-4k$"
"390",390,"Male","Yes","0","Graduate","No",5488,2333,125,360,1,"Rural","Y","No dependents","4k-8k$"
"391",391,"Male","No","3+","Graduate","No",9167,3724,185,360,1,"Rural","Y","> 3 dependents","8k-12k$"
"392",392,"Male","Yes","3+","Graduate","No",9504,3817,275,360,1,"Rural","Y","> 3 dependents","8k-12k$"
"393",393,"Male","Yes","0","Graduate","No",2583,2115,120,360,1,"Urban","Y","No dependents","0-4k$"
"394",394,"Male","Yes","2","Not Graduate","No",1993,1625,113,180,1,"Semiurban","Y","Two dependents","0-4k$"
"395",395,"Male","Yes","2","Graduate","No",3100,1400,113,360,1,"Urban","Y","Two dependents","0-4k$"
"396",396,"Male","Yes","2","Graduate","No",3276,484,135,360,1,"Semiurban","Y","Two dependents","0-4k$"
"397",397,"Female","No","0","Graduate","No",3180,3869,71,360,0,"Urban","N","No dependents","0-4k$"
"398",398,"Male","Yes","0","Graduate","No",3033,1459,95,360,1,"Urban","Y","No dependents","0-4k$"
"399",399,"Male","No","0","Not Graduate","No",3902,1666,109,360,1,"Rural","Y","No dependents","0-4k$"
"400",400,"Female","No","0","Graduate","No",1500,1800,103,360,0,"Semiurban","N","No dependents","0-4k$"
"401",401,"Male","Yes","2","Not Graduate","No",2889,2131,45,180,0,"Urban","N","Two dependents","0-4k$"
"402",402,"Male","No","0","Not Graduate","No",2755,2582,65,300,1,"Rural","N","No dependents","0-4k$"
"403",403,"Male","No","0","Graduate","No",2500,20000,103,360,1,"Semiurban","Y","No dependents","0-4k$"
"404",404,"Female","No","0","Not Graduate","No",1963,2468,53,360,1,"Semiurban","Y","No dependents","0-4k$"
"405",405,"Female","No","0","Graduate","Yes",7441,2788,194,360,1,"Rural","N","No dependents","4k-8k$"
"406",406,"Female","No","0","Graduate","No",4547,2554,115,360,1,"Semiurban","Y","No dependents","4k-8k$"
"407",407,"Male","Yes","0","Not Graduate","No",2167,2400,115,360,1,"Urban","Y","No dependents","0-4k$"
"408",408,"Female","No","0","Not Graduate","No",2213,2240,66,360,1,"Rural","Y","No dependents","0-4k$"
"409",409,"Male","Yes","1","Graduate","No",8300,3544,152,300,0,"Semiurban","N","One dependent","8k-12k$"
"410",410,"Male","Yes","3+","Graduate","No",81000,8100,360,360,0,"Rural","N","> 3 dependents",">20k$"
"411",411,"Female","No","1","Not Graduate","Yes",3867,2398,62,360,1,"Semiurban","N","One dependent","0-4k$"
"412",412,"Male","Yes","0","Graduate","No",6256,3326,160,360,1,"Urban","Y","No dependents","4k-8k$"
"413",413,"Male","Yes","0","Not Graduate","No",6096,3150,218,360,0,"Rural","N","No dependents","4k-8k$"
"414",414,"Male","Yes","0","Not Graduate","No",2253,2033,110,360,1,"Rural","Y","No dependents","0-4k$"
"415",415,"Female","Yes","0","Not Graduate","No",2149,3237,178,360,0,"Semiurban","N","No dependents","0-4k$"
"416",416,"Female","No","0","Graduate","No",2995,2182,60,360,1,"Urban","Y","No dependents","0-4k$"
"417",417,"Female","No","1","Graduate","No",2600,2663,160,360,1,"Urban","N","One dependent","0-4k$"
"418",418,"Male","Yes","2","Graduate","Yes",1600,20000,239,360,1,"Urban","N","Two dependents","0-4k$"
"419",419,"Male","Yes","0","Graduate","No",1025,2773,112,360,1,"Rural","Y","No dependents","0-4k$"
"420",420,"Male","Yes","0","Graduate","No",3246,1417,138,360,1,"Semiurban","Y","No dependents","0-4k$"
"421",421,"Male","Yes","0","Graduate","No",5829,2959,138,360,1,"Rural","Y","No dependents","4k-8k$"
"422",422,"Female","No","0","Not Graduate","No",2720,3235,80,318,0,"Urban","N","No dependents","0-4k$"
"423",423,"Male","Yes","0","Graduate","No",1820,1719,100,360,1,"Urban","Y","No dependents","0-4k$"
"424",424,"Male","Yes","1","Graduate","No",7250,1667,110,317,0,"Urban","N","One dependent","4k-8k$"
"425",425,"Male","Yes","0","Graduate","No",14880,2829,96,360,1,"Semiurban","Y","No dependents","12k-16k$"
"426",426,"Male","Yes","0","Graduate","No",2666,4300,121,360,1,"Rural","Y","No dependents","0-4k$"
"427",427,"Female","No","1","Not Graduate","No",4606,2465,81,360,1,"Rural","N","One dependent","4k-8k$"
"428",428,"Male","Yes","2","Graduate","No",5935,2787,133,360,1,"Semiurban","Y","Two dependents","4k-8k$"
"429",429,"Male","Yes","0","Graduate","No",2920,16,87,360,1,"Rural","Y","No dependents","0-4k$"
"430",430,"Male","No","0","Not Graduate","No",2717,2846,60,180,1,"Urban","Y","No dependents","0-4k$"
"431",431,"Female","No","1","Graduate","Yes",8624,2639,150,360,1,"Semiurban","Y","One dependent","8k-12k$"
"432",432,"Male","No","0","Graduate","No",6500,3515,105,360,0,"Rural","N","No dependents","4k-8k$"
"433",433,"Male","No","0","Graduate","No",12876,7483,405,360,1,"Semiurban","Y","No dependents","12k-16k$"
"434",434,"Male","Yes","0","Graduate","No",2425,2340,143,360,1,"Semiurban","Y","No dependents","0-4k$"
"435",435,"Male","No","0","Graduate","No",3750,3696,100,360,1,"Urban","Y","No dependents","0-4k$"
"436",436,"Female","No","0","Graduate","No",10047,4240,204,240,1,"Semiurban","Y","No dependents","8k-12k$"
"437",437,"Male","No","0","Graduate","No",1926,1851,50,360,1,"Semiurban","Y","No dependents","0-4k$"
"438",438,"Male","Yes","0","Graduate","No",2213,1125,90,360,1,"Urban","Y","No dependents","0-4k$"
"439",439,"Male","No","0","Graduate","Yes",10416,4195,187,360,0,"Urban","N","No dependents","8k-12k$"
"440",440,"Female","Yes","0","Not Graduate","Yes",7142,2354,138,360,1,"Rural","Y","No dependents","4k-8k$"
"441",441,"Male","No","0","Graduate","No",3660,5064,187,360,1,"Semiurban","Y","No dependents","0-4k$"
"442",442,"Male","Yes","0","Graduate","No",7901,1833,180,360,1,"Rural","Y","No dependents","4k-8k$"
"443",443,"Male","No","3+","Not Graduate","No",4707,1993,148,360,1,"Semiurban","Y","> 3 dependents","4k-8k$"
"444",444,"Male","No","1","Graduate","No",37719,3216,152,360,1,"Semiurban","Y","One dependent",">20k$"
"445",445,"Male","Yes","0","Graduate","No",7333,8333,175,300,1,"Rural","Y","No dependents","4k-8k$"
"446",446,"Male","Yes","1","Graduate","Yes",3466,1210,130,360,1,"Rural","Y","One dependent","0-4k$"
"447",447,"Male","Yes","2","Not Graduate","No",4652,1479,110,360,1,"Rural","Y","Two dependents","4k-8k$"
"448",448,"Male","Yes","0","Graduate","No",3539,1376,55,360,1,"Rural","N","No dependents","0-4k$"
"449",449,"Male","Yes","2","Graduate","No",3340,1710,150,360,0,"Rural","N","Two dependents","0-4k$"
"450",450,"Male","No","1","Not Graduate","Yes",2769,1542,190,360,1,"Semiurban","N","One dependent","0-4k$"
"451",451,"Male","Yes","2","Not Graduate","No",2309,1255,125,360,0,"Rural","N","Two dependents","0-4k$"
"452",452,"Male","Yes","2","Not Graduate","No",1958,1456,60,300,1,"Urban","Y","Two dependents","0-4k$"
"453",453,"Male","Yes","0","Graduate","No",3948,1733,149,360,0,"Rural","N","No dependents","0-4k$"
"454",454,"Male","Yes","0","Graduate","No",2483,2466,90,180,0,"Rural","Y","No dependents","0-4k$"
"455",455,"Male","No","0","Graduate","Yes",7085,4105,84,360,1,"Semiurban","Y","No dependents","4k-8k$"
"456",456,"Male","Yes","2","Graduate","No",3859,1431,96,360,1,"Semiurban","Y","Two dependents","0-4k$"
"457",457,"Male","Yes","0","Graduate","No",4301,2167,118,360,1,"Urban","Y","No dependents","4k-8k$"
"458",458,"Male","Yes","0","Graduate","No",3708,2569,173,360,1,"Urban","N","No dependents","0-4k$"
"459",459,"Male","No","2","Graduate","No",4354,2506,136,360,1,"Rural","Y","Two dependents","4k-8k$"
"460",460,"Male","Yes","0","Graduate","No",8334,2979,160,360,1,"Semiurban","N","No dependents","8k-12k$"
"461",461,"Male","Yes","0","Graduate","Yes",2083,4083,160,360,1,"Semiurban","Y","No dependents","0-4k$"
"462",462,"Male","Yes","3+","Graduate","No",7740,3667,128,180,1,"Urban","Y","> 3 dependents","4k-8k$"
"463",463,"Male","Yes","0","Graduate","No",3015,2188,153,360,1,"Rural","Y","No dependents","0-4k$"
"464",464,"Female","No","1","Not Graduate","No",5191,1950,132,360,1,"Semiurban","Y","One dependent","4k-8k$"
"465",465,"Male","No","0","Graduate","No",4166,3480,98,360,0,"Semiurban","N","No dependents","4k-8k$"
"466",466,"Male","No","0","Graduate","No",6000,3262,140,360,1,"Rural","Y","No dependents","4k-8k$"
"467",467,"Male","Yes","3+","Not Graduate","No",2947,1664,70,180,0,"Urban","N","> 3 dependents","0-4k$"
"468",468,"Male","Yes","0","Graduate","No",16692,2852,110,360,1,"Semiurban","Y","No dependents","16k-20k$"
"469",469,"Female","Yes","2","Not Graduate","No",210,2917,98,360,1,"Semiurban","Y","Two dependents","0-4k$"
"470",470,"Male","Yes","0","Graduate","No",4333,2451,110,360,1,"Urban","N","No dependents","4k-8k$"
"471",471,"Male","Yes","1","Graduate","Yes",3450,2079,162,360,1,"Semiurban","Y","One dependent","0-4k$"
"472",472,"Male","Yes","1","Not Graduate","No",2653,1500,113,180,0,"Rural","N","One dependent","0-4k$"
"473",473,"Male","Yes","3+","Graduate","No",4691,1381,100,360,1,"Semiurban","Y","> 3 dependents","4k-8k$"
"474",474,"Female","No","0","Graduate","Yes",2500,4299,93,360,1,"Urban","Y","No dependents","0-4k$"
"475",475,"Male","No","2","Graduate","No",5532,4648,162,360,1,"Rural","Y","Two dependents","4k-8k$"
"476",476,"Male","Yes","2","Graduate","Yes",16525,1014,150,360,1,"Rural","Y","Two dependents","16k-20k$"
"477",477,"Male","Yes","2","Graduate","No",6700,1750,230,300,1,"Semiurban","Y","Two dependents","4k-8k$"
"478",478,"Male","Yes","2","Graduate","No",2873,1872,132,360,0,"Semiurban","N","Two dependents","0-4k$"
"479",479,"Male","Yes","1","Graduate","Yes",16667,2250,86,360,1,"Semiurban","Y","One dependent","16k-20k$"
"480",480,"Male","Yes","2","Graduate","No",2947,1603,121,360,1,"Urban","N","Two dependents","0-4k$"
"481",481,"Female","No","0","Not Graduate","No",4350,2281,154,360,1,"Rural","Y","No dependents","4k-8k$"
"482",482,"Male","Yes","3+","Not Graduate","No",3095,1952,113,360,1,"Rural","Y","> 3 dependents","0-4k$"
"483",483,"Male","Yes","0","Graduate","No",2083,3150,128,360,1,"Semiurban","Y","No dependents","0-4k$"
"484",484,"Male","Yes","0","Graduate","No",10833,3143,234,360,1,"Semiurban","Y","No dependents","8k-12k$"
"485",485,"Male","Yes","2","Graduate","No",8333,3134,246,360,1,"Semiurban","Y","Two dependents","8k-12k$"
"486",486,"Male","Yes","1","Not Graduate","No",1958,2436,131,360,1,"Rural","Y","One dependent","0-4k$"
"487",487,"Male","No","2","Graduate","No",3547,3412,80,360,0,"Rural","N","Two dependents","0-4k$"
"488",488,"Male","Yes","1","Graduate","No",18333,6891,500,360,1,"Urban","N","One dependent","16k-20k$"
"489",489,"Male","Yes","2","Graduate","Yes",4583,2083,160,360,1,"Semiurban","Y","Two dependents","4k-8k$"
"490",490,"Male","No","0","Graduate","No",2435,6795,75,360,1,"Urban","N","No dependents","0-4k$"
"491",491,"Male","No","0","Not Graduate","No",2699,2785,96,360,1,"Semiurban","Y","No dependents","0-4k$"
"492",492,"Male","Yes","1","Not Graduate","No",5333,1131,186,360,1,"Urban","Y","One dependent","4k-8k$"
"493",493,"Male","No","0","Not Graduate","No",3691,1900,110,360,1,"Rural","Y","No dependents","0-4k$"
"494",494,"Female","No","0","Not Graduate","Yes",17263,2638,225,360,1,"Semiurban","Y","No dependents","16k-20k$"
"495",495,"Male","Yes","0","Graduate","No",3597,2157,119,360,0,"Rural","N","No dependents","0-4k$"
"496",496,"Female","Yes","1","Graduate","No",3326,913,105,84,1,"Semiurban","Y","One dependent","0-4k$"
"497",497,"Male","Yes","0","Not Graduate","No",2600,1700,107,360,1,"Rural","Y","No dependents","0-4k$"
"498",498,"Male","Yes","0","Graduate","No",4625,2857,111,12,1,"Urban","Y","No dependents","4k-8k$"
"499",499,"Male","Yes","1","Graduate","Yes",2895,2123,95,360,1,"Semiurban","Y","One dependent","0-4k$"
"500",500,"Male","No","0","Graduate","No",6283,4416,209,360,0,"Rural","N","No dependents","4k-8k$"
"501",501,"Female","No","0","Graduate","No",645,3683,113,480,1,"Rural","Y","No dependents","0-4k$"
"502",502,"Female","No","0","Graduate","No",3159,3489,100,360,1,"Semiurban","Y","No dependents","0-4k$"
"503",503,"Male","Yes","2","Graduate","No",4865,5624,208,360,1,"Semiurban","Y","Two dependents","4k-8k$"
"504",504,"Male","Yes","1","Not Graduate","No",4050,5302,138,360,0,"Rural","N","One dependent","4k-8k$"
"505",505,"Male","Yes","0","Not Graduate","No",3814,1483,124,300,1,"Semiurban","Y","No dependents","0-4k$"
"506",506,"Male","Yes","2","Graduate","No",3510,4416,243,360,1,"Rural","Y","Two dependents","0-4k$"
"507",507,"Male","Yes","0","Graduate","No",20833,6667,480,360,1,"Urban","Y","No dependents",">20k$"
"508",508,"Male","No","0","Graduate","No",3583,4768,96,360,1,"Urban","N","No dependents","0-4k$"
"509",509,"Male","Yes","0","Graduate","Yes",2479,3013,188,360,1,"Urban","Y","No dependents","0-4k$"
"510",510,"Female","No","1","Graduate","No",13262,2369,40,360,1,"Urban","Y","One dependent","12k-16k$"
"511",511,"Male","No","0","Not Graduate","No",3598,1287,100,360,1,"Rural","N","No dependents","0-4k$"
"512",512,"Male","Yes","1","Graduate","No",6065,2004,250,360,1,"Semiurban","Y","One dependent","4k-8k$"
"513",513,"Male","Yes","2","Graduate","No",3283,2035,148,360,1,"Urban","Y","Two dependents","0-4k$"
"514",514,"Male","Yes","0","Graduate","No",2130,6666,70,180,1,"Semiurban","N","No dependents","0-4k$"
"515",515,"Male","No","0","Graduate","No",5815,3666,311,360,1,"Rural","N","No dependents","4k-8k$"
"516",516,"Male","Yes","3+","Graduate","No",3466,3428,150,360,1,"Rural","Y","> 3 dependents","0-4k$"
"517",517,"Female","Yes","2","Graduate","No",2031,1632,113,480,1,"Semiurban","Y","Two dependents","0-4k$"
"518",518,"Male","Yes","2","Not Graduate","No",3074,1800,123,360,0,"Semiurban","N","Two dependents","0-4k$"
"519",519,"Male","No","0","Graduate","No",4683,1915,185,360,1,"Semiurban","N","No dependents","4k-8k$"
"520",520,"Female","No","0","Not Graduate","No",3400,2058,95,360,1,"Rural","N","No dependents","0-4k$"
"521",521,"Male","Yes","2","Not Graduate","No",2192,1742,45,360,1,"Semiurban","Y","Two dependents","0-4k$"
"522",522,"Male","No","0","Graduate","No",2500,6931,55,360,1,"Semiurban","Y","No dependents","0-4k$"
"523",523,"Male","Yes","3+","Graduate","Yes",5677,1424,100,360,1,"Rural","Y","> 3 dependents","4k-8k$"
"524",524,"Male","Yes","2","Graduate","Yes",7948,7166,480,360,1,"Rural","Y","Two dependents","4k-8k$"
"525",525,"Male","No","0","Graduate","No",4680,2087,151,360,1,"Semiurban","N","No dependents","4k-8k$"
"526",526,"Male","Yes","2","Graduate","Yes",17500,6249,400,360,1,"Rural","Y","Two dependents","16k-20k$"
"527",527,"Male","Yes","0","Graduate","No",3775,1715,110,360,1,"Semiurban","Y","No dependents","0-4k$"
"528",528,"Male","Yes","1","Not Graduate","No",5285,1430,161,360,0,"Semiurban","Y","One dependent","4k-8k$"
"529",529,"Male","No","1","Not Graduate","No",2679,1302,94,360,1,"Semiurban","Y","One dependent","0-4k$"
"530",530,"Male","No","0","Not Graduate","No",6783,2534,130,360,1,"Semiurban","Y","No dependents","4k-8k$"
"531",531,"Male","Yes","0","Graduate","No",1025,5500,216,360,1,"Rural","Y","No dependents","0-4k$"
"532",532,"Male","Yes","3+","Graduate","No",4281,1520,100,360,1,"Urban","Y","> 3 dependents","4k-8k$"
"533",533,"Male","No","2","Graduate","No",3588,2639,110,360,0,"Rural","N","Two dependents","0-4k$"
"534",534,"Male","No","1","Graduate","No",11250,3535,196,360,1,"Semiurban","N","One dependent","8k-12k$"
"535",535,"Female","No","0","Not Graduate","Yes",18165,2472,125,360,1,"Urban","Y","No dependents","16k-20k$"
"536",536,"Male","No","0","Not Graduate","No",2550,2042,126,360,1,"Rural","Y","No dependents","0-4k$"
"537",537,"Male","Yes","0","Graduate","No",6133,3906,324,360,1,"Urban","Y","No dependents","4k-8k$"
"538",538,"Male","No","2","Graduate","No",3617,2638,107,360,1,"Semiurban","Y","Two dependents","0-4k$"
"539",539,"Male","Yes","0","Not Graduate","No",2917,536,66,360,1,"Rural","N","No dependents","0-4k$"
"540",540,"Male","Yes","3+","Graduate","No",6417,4181,157,180,1,"Rural","Y","> 3 dependents","4k-8k$"
"541",541,"Female","Yes","1","Graduate","No",4608,2845,140,180,1,"Semiurban","Y","One dependent","4k-8k$"
"542",542,"Female","No","0","Graduate","No",2138,4139,99,360,0,"Semiurban","N","No dependents","0-4k$"
"543",543,"Female","No","1","Graduate","No",3652,2425,95,360,1,"Semiurban","Y","One dependent","0-4k$"
"544",544,"Male","Yes","1","Not Graduate","No",2239,2524,128,360,1,"Urban","Y","One dependent","0-4k$"
"545",545,"Female","Yes","0","Not Graduate","No",3017,663,102,360,1,"Semiurban","Y","No dependents","0-4k$"
"546",546,"Male","Yes","0","Graduate","No",2768,1950,155,360,1,"Rural","Y","No dependents","0-4k$"
"547",547,"Male","No","0","Not Graduate","No",3358,3537,80,36,1,"Semiurban","N","No dependents","0-4k$"
"548",548,"Male","No","0","Graduate","No",2526,1783,145,360,1,"Rural","Y","No dependents","0-4k$"
"549",549,"Female","No","0","Graduate","No",5000,3586,103,360,0,"Semiurban","N","No dependents","4k-8k$"
"550",550,"Male","Yes","0","Graduate","No",2785,2016,110,360,1,"Rural","Y","No dependents","0-4k$"
"551",551,"Male","Yes","2","Graduate","Yes",6633,4032,201,360,0,"Rural","N","Two dependents","4k-8k$"
"552",552,"Male","Yes","1","Not Graduate","No",2492,2375,124,360,1,"Rural","Y","One dependent","0-4k$"
"553",553,"Male","Yes","1","Graduate","No",3333,3250,158,360,1,"Urban","Y","One dependent","0-4k$"
"554",554,"Male","Yes","0","Not Graduate","No",2454,2333,181,360,0,"Urban","N","No dependents","0-4k$"
"555",555,"Male","Yes","0","Graduate","No",3593,4266,132,180,0,"Rural","N","No dependents","0-4k$"
"556",556,"Male","Yes","1","Graduate","No",5468,1032,26,360,1,"Semiurban","Y","One dependent","4k-8k$"
"557",557,"Female","No","0","Graduate","No",2667,1625,84,360,1,"Urban","Y","No dependents","0-4k$"
"558",558,"Male","Yes","3+","Graduate","Yes",10139,3765,260,360,1,"Semiurban","Y","> 3 dependents","8k-12k$"
"559",559,"Male","Yes","0","Graduate","No",3887,2669,162,360,1,"Semiurban","Y","No dependents","0-4k$"
"560",560,"Female","Yes","0","Graduate","No",4180,2306,182,360,1,"Semiurban","Y","No dependents","4k-8k$"
"561",561,"Male","Yes","2","Not Graduate","No",3675,242,108,360,1,"Semiurban","Y","Two dependents","0-4k$"
"562",562,"Female","Yes","1","Graduate","Yes",19484,7436,600,360,1,"Semiurban","Y","One dependent","16k-20k$"
"563",563,"Male","Yes","0","Graduate","No",5923,2054,211,360,1,"Rural","Y","No dependents","4k-8k$"
"564",564,"Male","No","0","Not Graduate","Yes",5800,2405,132,360,1,"Semiurban","Y","No dependents","4k-8k$"
"565",565,"Male","Yes","2","Graduate","No",8799,4436,258,360,0,"Urban","N","Two dependents","8k-12k$"
"566",566,"Male","Yes","0","Not Graduate","No",4467,2132,120,360,1,"Rural","Y","No dependents","4k-8k$"
"567",567,"Male","No","0","Graduate","No",3333,2958,70,360,1,"Urban","Y","No dependents","0-4k$"
"568",568,"Male","Yes","3+","Graduate","No",3400,2500,123,360,0,"Rural","N","> 3 dependents","0-4k$"
"569",569,"Female","No","0","Graduate","No",2378,5016,9,360,1,"Urban","N","No dependents","0-4k$"
"570",570,"Male","Yes","0","Graduate","No",3166,2064,104,360,0,"Urban","N","No dependents","0-4k$"
"571",571,"Male","Yes","1","Graduate","No",3417,1750,186,360,1,"Urban","Y","One dependent","0-4k$"
"572",572,"Male","Yes","1","Graduate","No",5116,1451,165,360,0,"Urban","N","One dependent","4k-8k$"
"573",573,"Male","Yes","2","Graduate","No",16666,3330,275,360,1,"Urban","Y","Two dependents","16k-20k$"
"574",574,"Male","Yes","2","Not Graduate","No",6125,1625,187,480,1,"Semiurban","N","Two dependents","4k-8k$"
"575",575,"Male","Yes","3+","Graduate","No",6406,3211,150,360,1,"Semiurban","N","> 3 dependents","4k-8k$"
"576",576,"Male","Yes","2","Graduate","No",3159,461,108,84,1,"Urban","Y","Two dependents","0-4k$"
"577",577,"Male","Yes","0","Graduate","No",3087,2210,136,360,0,"Semiurban","N","No dependents","0-4k$"
"578",578,"Male","No","0","Graduate","No",3229,2739,110,360,1,"Urban","Y","No dependents","0-4k$"
"579",579,"Male","Yes","1","Graduate","No",1782,2232,107,360,1,"Rural","Y","One dependent","0-4k$"
"580",580,"Male","No","0","Graduate","No",3182,2917,161,360,1,"Urban","Y","No dependents","0-4k$"
"581",581,"Male","Yes","2","Graduate","No",6540,3115,205,360,1,"Semiurban","Y","Two dependents","4k-8k$"
"582",582,"Male","No","0","Graduate","No",1836,33837,90,360,1,"Urban","N","No dependents","0-4k$"
"583",583,"Female","Yes","0","Graduate","No",3166,2082,36,360,1,"Semiurban","Y","No dependents","0-4k$"
"584",584,"Male","Yes","1","Graduate","No",1880,2955,61,360,1,"Rural","N","One dependent","0-4k$"
"585",585,"Male","Yes","1","Graduate","No",2787,1917,146,360,0,"Rural","N","One dependent","0-4k$"
"586",586,"Male","Yes","1","Graduate","No",4283,3000,172,84,1,"Rural","N","One dependent","4k-8k$"
"587",587,"Male","Yes","0","Graduate","No",2297,1522,104,360,1,"Urban","Y","No dependents","0-4k$"
"588",588,"Female","No","0","Not Graduate","No",2165,2607,70,360,1,"Semiurban","Y","No dependents","0-4k$"
"589",589,"Female","No","0","Graduate","No",4750,3255,94,360,1,"Semiurban","Y","No dependents","4k-8k$"
"590",590,"Male","Yes","2","Graduate","Yes",2726,2575,106,360,0,"Semiurban","N","Two dependents","0-4k$"
"591",591,"Male","Yes","0","Graduate","No",3000,3416,56,180,1,"Semiurban","Y","No dependents","0-4k$"
"592",592,"Male","Yes","2","Graduate","Yes",6000,4090,205,240,1,"Semiurban","N","Two dependents","4k-8k$"
"593",593,"Male","No","3+","Graduate","Yes",9357,4212,292,360,1,"Semiurban","Y","> 3 dependents","8k-12k$"
"594",594,"Male","Yes","0","Graduate","No",3859,3300,142,180,1,"Rural","Y","No dependents","0-4k$"
"595",595,"Male","Yes","0","Graduate","Yes",16120,3848,260,360,1,"Urban","Y","No dependents","16k-20k$"
"596",596,"Male","No","0","Not Graduate","No",3833,1894,110,360,1,"Rural","Y","No dependents","0-4k$"
"597",597,"Male","Yes","2","Not Graduate","Yes",6383,1000,187,360,1,"Rural","N","Two dependents","4k-8k$"
"598",598,"Male","No","0","Graduate","No",2987,4165,88,360,0,"Semiurban","N","No dependents","0-4k$"
"599",599,"Male","Yes","0","Graduate","Yes",9963,2921,180,360,1,"Rural","Y","No dependents","8k-12k$"
"600",600,"Male","Yes","2","Graduate","No",5780,3434,192,360,1,"Urban","Y","Two dependents","4k-8k$"
"601",601,"Female","No","3+","Graduate","No",416,41667,350,180,1,"Urban","N","> 3 dependents","0-4k$"
"602",602,"Male","Yes","0","Not Graduate","No",2894,2792,155,360,1,"Rural","Y","No dependents","0-4k$"
"603",603,"Male","Yes","3+","Graduate","No",5703,2726,128,360,1,"Urban","Y","> 3 dependents","4k-8k$"
"604",604,"Male","No","0","Graduate","No",3676,4301,172,360,1,"Rural","Y","No dependents","0-4k$"
"605",605,"Female","Yes","1","Graduate","No",12000,7668,496,360,1,"Semiurban","Y","One dependent","8k-12k$"
"606",606,"Male","Yes","0","Not Graduate","No",2400,3800,123,180,1,"Urban","N","No dependents","0-4k$"
"607",607,"Male","Yes","1","Graduate","No",3400,2500,173,360,1,"Semiurban","Y","One dependent","0-4k$"
"608",608,"Male","Yes","2","Not Graduate","No",3987,1411,157,360,1,"Rural","Y","Two dependents","0-4k$"
"609",609,"Male","Yes","0","Graduate","No",3232,1950,108,360,1,"Rural","Y","No dependents","0-4k$"
"610",610,"Female","No","0","Graduate","No",2900,2215,71,360,1,"Rural","Y","No dependents","0-4k$"
"611",611,"Male","Yes","3+","Graduate","No",4106,2936,40,180,1,"Rural","Y","> 3 dependents","4k-8k$"
"612",612,"Male","Yes","1","Graduate","No",8072,240,253,360,1,"Urban","Y","One dependent","8k-12k$"
"613",613,"Male","Yes","2","Graduate","No",7583,2732,187,360,1,"Urban","Y","Two dependents","4k-8k$"
"614",614,"Female","No","0","Graduate","Yes",4583,2921,133,360,0,"Semiurban","N","No dependents","4k-8k$"
